{
    "orders": {
        "pageIndex": 1,
        "totalPages": 15504,
        "totalItems": 155031,
        "items": [
            {
                "orderId": 124304637,
                "txnId": 247114658,
                "companyId": 1071,
                "facilityId": 1646,
                "orderNumber": 155179,
                "partyId": 324096,
                "createdByUserId": null,
                "accountId": null,
                "shippingAddressId": null,
                "status": 5,
                "orderType": 3,
                "isTaxExempt": false,
                "isOrderSetupComplete": false,
                "isDeleted": false,
                "tip": 44.85,
                "tax": 24.67,
                "subTotal": 298.98,
                "orderTotal": 323.65,
                "depositAmountRequired": 100,
                "eventBasePrice": 259,
                "gohCount": null,
                "trackAdultAndChildCountsSeparately": true,
                "hostCount": null,
                "expectedGuestCount_1": 10,
                "expectedGuestCount_2": 20,
                "actualGuestCount_1": 10,
                "actualGuestCount_2": 20,
                "overallGuestCapacity": 50,
                "overallGuestMinimum": 9,
                "guestCapacity_1": 50,
                "guestCapacity_2": 50,
                "minimumGuestCount_1": 8,
                "minimumGuestCount_2": 1,
                "standardGuestCount_1": 8,
                "standardGuestCount_2": 0,
                "maximumGuestCount_1": 50,
                "maximumGuestCount_2": 50,
                "additionalGuestFee_1": 19.99,
                "additionalGuestFee_2": 0,
                "overTheLimitGuestFee_1": 0,
                "overTheLimitGuestFee_2": 0,
                "orderDate": "2022-10-26T18:04:00",
                "lastUpdated": "2022-10-26T18:04:09.63",
                "cancelDate": null,
                "dateClosed": null,
                "eventStartDateTime": "2022-12-03T21:30:00",
                "eventEndDateTime": "2022-12-03T23:00:00",
                "notes": "Q: If you have selected the Fun Party Package please select TWO options below:(If you selected this package please only pick from the TWO options below)\r\nA: Fruit Platter\r\n\r\nQ: \r\nA: Cheese Pizza\r\n\r\nQ:  If you have selected the Awesome Party Package please select THREE options below:(If you selected this package please only pick from the THREE options below)\r\nA: \r\n\r\nQ: \r\nA: \r\n\r\nQ: \r\nA: \r\n\r\nQ: If you have selected the VIP Party Package please select FOUR options below:(If you selected this package please only pick from the FOUR options below)\r\nA: \r\n\r\nQ: \r\nA: \r\n\r\nQ: \r\nA: \r\n\r\nQ: \r\nA: \r\n\r\n",
                "totalPayments": 0,
                "totalRefunds": 0,
                "balanceDue": 368.5
            },
            {
                "orderId": 124304591,
                "txnId": 247114576,
                "companyId": 1071,
                "facilityId": 1646,
                "orderNumber": 155178,
                "partyId": 324096,
                "createdByUserId": null,
                "accountId": null,
                "shippingAddressId": null,
                "status": 5,
                "orderType": 3,
                "isTaxExempt": false,
                "isOrderSetupComplete": false,
                "isDeleted": false,
                "tip": 38.85,
                "tax": 21.37,
                "subTotal": 259,
                "orderTotal": 280.37,
                "depositAmountRequired": 100,
                "eventBasePrice": 259,
                "gohCount": null,
                "trackAdultAndChildCountsSeparately": true,
                "hostCount": null,
                "expectedGuestCount_1": 8,
                "expectedGuestCount_2": 15,
                "actualGuestCount_1": 8,
                "actualGuestCount_2": 15,
                "overallGuestCapacity": 50,
                "overallGuestMinimum": 9,
                "guestCapacity_1": 50,
                "guestCapacity_2": 50,
                "minimumGuestCount_1": 8,
                "minimumGuestCount_2": 1,
                "standardGuestCount_1": 8,
                "standardGuestCount_2": 0,
                "maximumGuestCount_1": 50,
                "maximumGuestCount_2": 50,
                "additionalGuestFee_1": 19.99,
                "additionalGuestFee_2": 0,
                "overTheLimitGuestFee_1": 0,
                "overTheLimitGuestFee_2": 0,
                "orderDate": "2022-10-26T18:00:00",
                "lastUpdated": "2022-10-26T18:02:37.807",
                "cancelDate": null,
                "dateClosed": null,
                "eventStartDateTime": "2022-12-17T18:30:00",
                "eventEndDateTime": "2022-12-17T20:00:00",
                "notes": "Q: If you have selected the Fun Party Package please select TWO options below:(If you selected this package please only pick from the TWO options below)\r\nA: Cheese Pizza\r\n\r\nQ: \r\nA: Kids Sandwiches\r\n\r\nQ:  If you have selected the Awesome Party Package please select THREE options below:(If you selected this package please only pick from the THREE options below)\r\nA: \r\n\r\nQ: \r\nA: \r\n\r\nQ: \r\nA: \r\n\r\nQ: If you have selected the VIP Party Package please select FOUR options below:(If you selected this package please only pick from the FOUR options below)\r\nA: \r\n\r\nQ: \r\nA: \r\n\r\nQ: \r\nA: \r\n\r\nQ: \r\nA: \r\n\r\n",
                "totalPayments": 0,
                "totalRefunds": 0,
                "balanceDue": 319.22
            },
            {
                "orderId": 124304581,
                "txnId": 247114557,
                "companyId": 1071,
                "facilityId": 1646,
                "orderNumber": 155177,
                "partyId": null,
                "createdByUserId": 104502,
                "accountId": 8869309,
                "shippingAddressId": null,
                "status": 6,
                "orderType": 2,
                "isTaxExempt": false,
                "isOrderSetupComplete": true,
                "isDeleted": false,
                "tip": 0,
                "tax": 0,
                "subTotal": 0,
                "orderTotal": 0,
                "depositAmountRequired": 0,
                "eventBasePrice": 0,
                "gohCount": null,
                "trackAdultAndChildCountsSeparately": false,
                "hostCount": null,
                "expectedGuestCount_1": 0,
                "expectedGuestCount_2": 0,
                "actualGuestCount_1": 0,
                "actualGuestCount_2": 0,
                "overallGuestCapacity": 0,
                "overallGuestMinimum": 0,
                "guestCapacity_1": 0,
                "guestCapacity_2": 0,
                "minimumGuestCount_1": 0,
                "minimumGuestCount_2": 0,
                "standardGuestCount_1": 0,
                "standardGuestCount_2": 0,
                "maximumGuestCount_1": 0,
                "maximumGuestCount_2": 0,
                "additionalGuestFee_1": 0,
                "additionalGuestFee_2": 0,
                "overTheLimitGuestFee_1": 0,
                "overTheLimitGuestFee_2": 0,
                "orderDate": "2022-10-26T17:59:00",
                "lastUpdated": "2022-10-26T17:58:48.267",
                "cancelDate": null,
                "dateClosed": null,
                "eventStartDateTime": null,
                "eventEndDateTime": null,
                "notes": null,
                "totalPayments": 0,
                "totalRefunds": 0,
                "balanceDue": 0
            },
            {
                "orderId": 124304567,
                "txnId": 247114538,
                "companyId": 1071,
                "facilityId": 1646,
                "orderNumber": 155176,
                "partyId": null,
                "createdByUserId": 104502,
                "accountId": 22542848,
                "shippingAddressId": null,
                "status": 3,
                "orderType": 2,
                "isTaxExempt": false,
                "isOrderSetupComplete": true,
                "isDeleted": false,
                "tip": 0,
                "tax": 3.22,
                "subTotal": 38.98,
                "orderTotal": 42.2,
                "depositAmountRequired": 0,
                "eventBasePrice": 0,
                "gohCount": null,
                "trackAdultAndChildCountsSeparately": false,
                "hostCount": null,
                "expectedGuestCount_1": 0,
                "expectedGuestCount_2": 0,
                "actualGuestCount_1": 0,
                "actualGuestCount_2": 0,
                "overallGuestCapacity": 0,
                "overallGuestMinimum": 0,
                "guestCapacity_1": 0,
                "guestCapacity_2": 0,
                "minimumGuestCount_1": 0,
                "minimumGuestCount_2": 0,
                "standardGuestCount_1": 0,
                "standardGuestCount_2": 0,
                "maximumGuestCount_1": 0,
                "maximumGuestCount_2": 0,
                "additionalGuestFee_1": 0,
                "additionalGuestFee_2": 0,
                "overTheLimitGuestFee_1": 0,
                "overTheLimitGuestFee_2": 0,
                "orderDate": "2022-10-26T17:57:00",
                "lastUpdated": "2022-10-26T17:58:37.503",
                "cancelDate": null,
                "dateClosed": "2022-10-26T17:58:37",
                "eventStartDateTime": null,
                "eventEndDateTime": null,
                "notes": null,
                "totalPayments": 42.2,
                "totalRefunds": 0,
                "balanceDue": 0
            },
            {
                "orderId": 124304422,
                "txnId": 247114303,
                "companyId": 1071,
                "facilityId": 1646,
                "orderNumber": 155175,
                "partyId": null,
                "createdByUserId": 104502,
                "accountId": 8869309,
                "shippingAddressId": null,
                "status": 6,
                "orderType": 2,
                "isTaxExempt": false,
                "isOrderSetupComplete": true,
                "isDeleted": false,
                "tip": 0,
                "tax": 0,
                "subTotal": 0,
                "orderTotal": 0,
                "depositAmountRequired": 0,
                "eventBasePrice": 0,
                "gohCount": null,
                "trackAdultAndChildCountsSeparately": false,
                "hostCount": null,
                "expectedGuestCount_1": 0,
                "expectedGuestCount_2": 0,
                "actualGuestCount_1": 0,
                "actualGuestCount_2": 0,
                "overallGuestCapacity": 0,
                "overallGuestMinimum": 0,
                "guestCapacity_1": 0,
                "guestCapacity_2": 0,
                "minimumGuestCount_1": 0,
                "minimumGuestCount_2": 0,
                "standardGuestCount_1": 0,
                "standardGuestCount_2": 0,
                "maximumGuestCount_1": 0,
                "maximumGuestCount_2": 0,
                "additionalGuestFee_1": 0,
                "additionalGuestFee_2": 0,
                "overTheLimitGuestFee_1": 0,
                "overTheLimitGuestFee_2": 0,
                "orderDate": "2022-10-26T17:41:00",
                "lastUpdated": "2022-10-26T17:55:01.97",
                "cancelDate": null,
                "dateClosed": null,
                "eventStartDateTime": null,
                "eventEndDateTime": null,
                "notes": null,
                "totalPayments": 0,
                "totalRefunds": 0,
                "balanceDue": 0
            },
            {
                "orderId": 124304417,
                "txnId": 247114293,
                "companyId": 1071,
                "facilityId": 1646,
                "orderNumber": 155174,
                "partyId": null,
                "createdByUserId": 104502,
                "accountId": 25647923,
                "shippingAddressId": null,
                "status": 3,
                "orderType": 2,
                "isTaxExempt": false,
                "isOrderSetupComplete": true,
                "isDeleted": false,
                "tip": 0,
                "tax": 1.98,
                "subTotal": 23.99,
                "orderTotal": 25.97,
                "depositAmountRequired": 0,
                "eventBasePrice": 0,
                "gohCount": null,
                "trackAdultAndChildCountsSeparately": false,
                "hostCount": null,
                "expectedGuestCount_1": 0,
                "expectedGuestCount_2": 0,
                "actualGuestCount_1": 0,
                "actualGuestCount_2": 0,
                "overallGuestCapacity": 0,
                "overallGuestMinimum": 0,
                "guestCapacity_1": 0,
                "guestCapacity_2": 0,
                "minimumGuestCount_1": 0,
                "minimumGuestCount_2": 0,
                "standardGuestCount_1": 0,
                "standardGuestCount_2": 0,
                "maximumGuestCount_1": 0,
                "maximumGuestCount_2": 0,
                "additionalGuestFee_1": 0,
                "additionalGuestFee_2": 0,
                "overTheLimitGuestFee_1": 0,
                "overTheLimitGuestFee_2": 0,
                "orderDate": "2022-10-26T17:41:00",
                "lastUpdated": "2022-10-26T17:41:24.603",
                "cancelDate": null,
                "dateClosed": "2022-10-26T17:41:25",
                "eventStartDateTime": null,
                "eventEndDateTime": null,
                "notes": null,
                "totalPayments": 25.97,
                "totalRefunds": 0,
                "balanceDue": 0
            },
            {
                "orderId": 124304285,
                "txnId": 247114078,
                "companyId": 1071,
                "facilityId": 1646,
                "orderNumber": 155173,
                "partyId": null,
                "createdByUserId": 193848,
                "accountId": 8869309,
                "shippingAddressId": null,
                "status": 6,
                "orderType": 2,
                "isTaxExempt": false,
                "isOrderSetupComplete": true,
                "isDeleted": false,
                "tip": 0,
                "tax": 0,
                "subTotal": 0,
                "orderTotal": 0,
                "depositAmountRequired": 0,
                "eventBasePrice": 0,
                "gohCount": null,
                "trackAdultAndChildCountsSeparately": false,
                "hostCount": null,
                "expectedGuestCount_1": 0,
                "expectedGuestCount_2": 0,
                "actualGuestCount_1": 0,
                "actualGuestCount_2": 0,
                "overallGuestCapacity": 0,
                "overallGuestMinimum": 0,
                "guestCapacity_1": 0,
                "guestCapacity_2": 0,
                "minimumGuestCount_1": 0,
                "minimumGuestCount_2": 0,
                "standardGuestCount_1": 0,
                "standardGuestCount_2": 0,
                "maximumGuestCount_1": 0,
                "maximumGuestCount_2": 0,
                "additionalGuestFee_1": 0,
                "additionalGuestFee_2": 0,
                "overTheLimitGuestFee_1": 0,
                "overTheLimitGuestFee_2": 0,
                "orderDate": "2022-10-26T17:26:00",
                "lastUpdated": "2022-10-26T17:36:16.33",
                "cancelDate": null,
                "dateClosed": null,
                "eventStartDateTime": null,
                "eventEndDateTime": null,
                "notes": null,
                "totalPayments": 0,
                "totalRefunds": 0,
                "balanceDue": 0
            },
            {
                "orderId": 124304272,
                "txnId": 247114053,
                "companyId": 1071,
                "facilityId": 1646,
                "orderNumber": 155172,
                "partyId": null,
                "createdByUserId": 193848,
                "accountId": 25353937,
                "shippingAddressId": null,
                "status": 3,
                "orderType": 2,
                "isTaxExempt": false,
                "isOrderSetupComplete": true,
                "isDeleted": false,
                "tip": 0,
                "tax": 3.96,
                "subTotal": 47.98,
                "orderTotal": 46.75,
                "depositAmountRequired": 0,
                "eventBasePrice": 0,
                "gohCount": null,
                "trackAdultAndChildCountsSeparately": false,
                "hostCount": null,
                "expectedGuestCount_1": 0,
                "expectedGuestCount_2": 0,
                "actualGuestCount_1": 0,
                "actualGuestCount_2": 0,
                "overallGuestCapacity": 0,
                "overallGuestMinimum": 0,
                "guestCapacity_1": 0,
                "guestCapacity_2": 0,
                "minimumGuestCount_1": 0,
                "minimumGuestCount_2": 0,
                "standardGuestCount_1": 0,
                "standardGuestCount_2": 0,
                "maximumGuestCount_1": 0,
                "maximumGuestCount_2": 0,
                "additionalGuestFee_1": 0,
                "additionalGuestFee_2": 0,
                "overTheLimitGuestFee_1": 0,
                "overTheLimitGuestFee_2": 0,
                "orderDate": "2022-10-26T17:25:00",
                "lastUpdated": "2022-10-26T17:25:57.9",
                "cancelDate": null,
                "dateClosed": "2022-10-26T17:25:58",
                "eventStartDateTime": null,
                "eventEndDateTime": null,
                "notes": null,
                "totalPayments": 46.75,
                "totalRefunds": 0,
                "balanceDue": 0
            },
            {
                "orderId": 124304176,
                "txnId": 247113897,
                "companyId": 1071,
                "facilityId": 1646,
                "orderNumber": 155171,
                "partyId": null,
                "createdByUserId": 193848,
                "accountId": 8869309,
                "shippingAddressId": null,
                "status": 6,
                "orderType": 2,
                "isTaxExempt": false,
                "isOrderSetupComplete": true,
                "isDeleted": false,
                "tip": 0,
                "tax": 0,
                "subTotal": 0,
                "orderTotal": 0,
                "depositAmountRequired": 0,
                "eventBasePrice": 0,
                "gohCount": null,
                "trackAdultAndChildCountsSeparately": false,
                "hostCount": null,
                "expectedGuestCount_1": 0,
                "expectedGuestCount_2": 0,
                "actualGuestCount_1": 0,
                "actualGuestCount_2": 0,
                "overallGuestCapacity": 0,
                "overallGuestMinimum": 0,
                "guestCapacity_1": 0,
                "guestCapacity_2": 0,
                "minimumGuestCount_1": 0,
                "minimumGuestCount_2": 0,
                "standardGuestCount_1": 0,
                "standardGuestCount_2": 0,
                "maximumGuestCount_1": 0,
                "maximumGuestCount_2": 0,
                "additionalGuestFee_1": 0,
                "additionalGuestFee_2": 0,
                "overTheLimitGuestFee_1": 0,
                "overTheLimitGuestFee_2": 0,
                "orderDate": "2022-10-26T17:14:00",
                "lastUpdated": "2022-10-26T17:14:21.14",
                "cancelDate": null,
                "dateClosed": null,
                "eventStartDateTime": null,
                "eventEndDateTime": null,
                "notes": null,
                "totalPayments": 0,
                "totalRefunds": 0,
                "balanceDue": 0
            },
            {
                "orderId": 124304162,
                "txnId": 247113873,
                "companyId": 1071,
                "facilityId": 1646,
                "orderNumber": 155170,
                "partyId": null,
                "createdByUserId": 193848,
                "accountId": 26242815,
                "shippingAddressId": null,
                "status": 3,
                "orderType": 2,
                "isTaxExempt": false,
                "isOrderSetupComplete": true,
                "isDeleted": false,
                "tip": 0,
                "tax": 3.46,
                "subTotal": 41.99,
                "orderTotal": 45.45,
                "depositAmountRequired": 0,
                "eventBasePrice": 0,
                "gohCount": null,
                "trackAdultAndChildCountsSeparately": false,
                "hostCount": null,
                "expectedGuestCount_1": 0,
                "expectedGuestCount_2": 0,
                "actualGuestCount_1": 0,
                "actualGuestCount_2": 0,
                "overallGuestCapacity": 0,
                "overallGuestMinimum": 0,
                "guestCapacity_1": 0,
                "guestCapacity_2": 0,
                "minimumGuestCount_1": 0,
                "minimumGuestCount_2": 0,
                "standardGuestCount_1": 0,
                "standardGuestCount_2": 0,
                "maximumGuestCount_1": 0,
                "maximumGuestCount_2": 0,
                "additionalGuestFee_1": 0,
                "additionalGuestFee_2": 0,
                "overTheLimitGuestFee_1": 0,
                "overTheLimitGuestFee_2": 0,
                "orderDate": "2022-10-26T17:13:00",
                "lastUpdated": "2022-10-26T17:14:09.323",
                "cancelDate": null,
                "dateClosed": "2022-10-26T17:14:09",
                "eventStartDateTime": null,
                "eventEndDateTime": null,
                "notes": null,
                "totalPayments": 45.45,
                "totalRefunds": 0,
                "balanceDue": 0
            }
        ],
        "hasPreviousPage": false,
        "hasNextPage": true
    }
}